<?xml version="1.0" encoding="UTF-8" standalone="no"?>
<svg
   xmlns:dc="http://purl.org/dc/elements/1.1/"
   xmlns:cc="http://creativecommons.org/ns#"
   xmlns:rdf="http://www.w3.org/1999/02/22-rdf-syntax-ns#"
   xmlns:svg="http://www.w3.org/2000/svg"
   xmlns="http://www.w3.org/2000/svg"
   xmlns:sodipodi="http://sodipodi.sourceforge.net/DTD/sodipodi-0.dtd"
   xmlns:inkscape="http://www.inkscape.org/namespaces/inkscape"
   version="1.1"
   id="svg2"
   xml:space="preserve"
   width="25.841757mm"
   height="27.600016mm"
   viewBox="0 0 97.669628 104.31502"
   sodipodi:docname="KZH20-1.svg"
   inkscape:version="1.0.1 (1.0.1+r73)"><metadata
     id="metadata8"><rdf:RDF><cc:Work
         rdf:about=""><dc:format>image/svg+xml</dc:format><dc:type
           rdf:resource="http://purl.org/dc/dcmitype/StillImage" /><dc:title></dc:title></cc:Work></rdf:RDF></metadata><defs
     id="defs6" /><sodipodi:namedview
     pagecolor="#ffffff"
     bordercolor="#666666"
     borderopacity="1"
     objecttolerance="10"
     gridtolerance="10"
     guidetolerance="10"
     inkscape:pageopacity="0"
     inkscape:pageshadow="2"
     inkscape:window-width="1378"
     inkscape:window-height="925"
     id="namedview4"
     showgrid="false"
     inkscape:document-units="mm"
     units="mm"
     inkscape:zoom="0.43721509"
     inkscape:cx="130.27582"
     inkscape:cy="113.49328"
     inkscape:window-x="464"
     inkscape:window-y="76"
     inkscape:window-maximized="0"
     inkscape:current-layer="g10"
     fit-margin-top="0"
     fit-margin-left="0"
     fit-margin-right="0"
     fit-margin-bottom="0" /><g
     id="g10"
     inkscape:groupmode="layer"
     inkscape:label="KZH20-1"
     transform="matrix(0,1.3333333,1.3333333,0,-770.70716,-102.88)"><path
       d="m 88.898712,603.14731 0.393476,-1.18043 0.131159,-0.59021 0.327897,-0.72138 0.393477,-0.85253 0.459055,-1.04927 0.590215,-1.18043 v 0 l 0.655794,-1.24601 0.655794,-1.18043 0.786953,-1.18043 0.786952,-1.18043 0.786953,-1.11485 v 0 l 0.852532,-1.11485 0.918112,-0.98369 0.918111,-1.04927 0.983691,-0.91811 1.049271,-0.98369 v 0 l 1.049266,-0.85253 1.04927,-0.85253 1.11485,-0.78696 1.11485,-0.72137 1.18043,-0.72137 v 0 l 1.18043,-0.6558 1.24601,-0.59021 1.18043,-0.52464 1.24601,-0.45905 1.31159,-0.45906 v 0 l 1.246,-0.39347 1.31159,-0.3279 1.31159,-0.26232 1.31159,-0.26232 1.31159,-0.13116 v 0 l 1.31158,-0.13115 1.37717,-0.0656 h 1.31159 l 1.31159,0.0656 1.37717,0.13115 v 0 l 1.31158,0.13116 1.31159,0.26232 1.31159,0.26232 1.24601,0.3279 1.31159,0.39347 v 0 l 1.246,0.45906 1.24601,0.45905 1.24601,0.52464 1.24601,0.59021 1.18043,0.6558 v 0 l 1.11485,0.72137 1.18043,0.72137 1.11485,0.78696 1.04927,0.85253 1.04927,0.85253 v 0 l 0.98369,0.98369 0.98369,0.91811 0.98369,1.04927 0.85253,0.98369 0.91811,1.11485 v 0 l 0.78696,1.11485 0.78695,1.18043 0.72137,1.18043 0.72138,1.18043 0.65579,1.24601 v 0 l 0.59022,1.24601 0.59021,1.31159 0.52464,1.31158 0.45905,1.31159 0.39348,1.37717 v 0 l 0.32789,1.37717 0.3279,1.37716 0.26232,1.37717 0.19674,1.44275 0.19674,1.37717 v 0 l 0.0656,1.44274 0.0656,1.44275 v 1.37717 l -0.0656,1.44274 -0.0656,1.44275 v 0 l -0.19674,1.37717 -0.19674,1.44274 -0.26232,1.37717 -0.3279,1.37717 -0.32789,1.37717 v 0 l -0.39348,1.37716 -0.45905,1.31159 -0.52464,1.31159 -0.59021,1.31159 -0.59022,1.24601 v 0 l -0.65579,1.246 -0.72138,1.18043 -0.72137,1.18043 -0.78695,1.18043 -0.78696,1.11485 v 0 l -0.91811,1.04927 -0.85253,1.04927 -0.98369,1.04927 -0.98369,0.91811 -0.98369,0.9837 v 0 l -1.04927,0.85253 -1.04927,0.85253 -1.11485,0.78695 -1.18043,0.72138 -1.11485,0.72137 v 0 l -1.18043,0.65579 -1.24601,0.59022 -1.24601,0.52463 -1.24601,0.45906 -1.246,0.45905 v 0 l -1.31159,0.39348 -1.24601,0.3279 -1.31159,0.26232 -1.31159,0.26231 -1.31158,0.13116 v 0 l -1.37717,0.13116 -1.31159,0.0656 h -1.31159 l -1.37717,-0.0656 -1.31158,-0.13116 v 0 l -1.31159,-0.13116 -1.31159,-0.26231 -1.31159,-0.26232 -1.31159,-0.3279 -1.246,-0.39348 v 0 l -1.31159,-0.45905 -1.24601,-0.45906 -1.18043,-0.52463 -1.24601,-0.59022 -1.18043,-0.65579 v 0 l -1.18043,-0.72137 -1.11485,-0.72138 -1.11485,-0.78695 -1.04927,-0.85253 -1.049266,-0.85253 v 0 l -1.049271,-0.9837 -0.983691,-0.91811 -0.918111,-1.04927 -0.918112,-1.04927 -0.852532,-1.04927 v 0 l -0.786953,-1.11485 -0.786952,-1.18043 -0.786953,-1.18043 -0.655794,-1.18043 -0.655794,-1.246 v 0 l -0.590215,-1.18043 -0.524635,-1.04927 -0.393476,-0.91811 -0.262318,-0.78696 -0.262317,-0.65579 v 0 l -0.393477,-1.50833"
       style="fill:none;stroke:#000000;stroke-width:0.786953;stroke-linecap:round;stroke-linejoin:round;stroke-miterlimit:10;stroke-dasharray:none;stroke-opacity:1"
       id="path250" /><path
       d="m 93.226952,607.01649 0.655794,-2.2297 0.262318,-0.91811 0.327897,-0.91811 0.393476,-0.98369 0.459056,-1.04927 0.524635,-1.04927 v 0 l 0.524635,-1.04927 0.590215,-0.98369 0.655794,-0.98369 0.655794,-0.98369 0.655794,-0.98369 v 0 l 0.786953,-0.91812 0.721377,-0.85253 0.78695,-0.85253 0.85253,-0.78695 0.85253,-0.78696 v 0 l 0.91811,-0.78695 0.91812,-0.65579 0.91811,-0.72138 0.91811,-0.59021 0.98369,-0.59022 v 0 l 1.04927,-0.52463 0.98369,-0.52464 1.04927,-0.45905 1.04927,-0.39348 1.11485,-0.39347 v 0 l 1.04927,-0.3279 1.11485,-0.26232 1.11485,-0.26232 1.11485,-0.19673 1.11485,-0.13116 v 0 l 1.11485,-0.0656 1.11485,-0.0656 h 1.18043 l 1.11485,0.0656 1.11485,0.0656 v 0 l 1.11485,0.13116 1.11485,0.19673 1.11485,0.26232 1.04927,0.26232 1.11485,0.3279 v 0 l 1.04927,0.39347 1.11485,0.39348 0.98369,0.45905 1.04927,0.52464 0.98369,0.52463 v 0 l 0.98369,0.59022 0.98369,0.59021 0.91811,0.72138 0.91812,0.65579 0.91811,0.78695 v 0 l 0.85253,0.78696 0.78695,0.78695 0.85253,0.85253 0.72138,0.85253 0.72137,0.91812 v 0 l 0.72137,0.98369 0.6558,0.98369 0.65579,0.98369 0.59022,0.98369 0.52463,1.04927 v 0 l 0.52464,1.11485 0.45905,1.04927 0.45906,1.11485 0.39348,1.11485 0.32789,1.18043 v 0 l 0.3279,1.11485 0.26232,1.18043 0.19674,1.18043 0.19673,1.18043 0.13116,1.18042 v 0 l 0.0656,1.24601 0.0656,1.18043 v 1.18043 l -0.0656,1.18043 -0.0656,1.24601 v 0 l -0.13116,1.18043 -0.19673,1.18043 -0.19674,1.18043 -0.26232,1.18043 -0.3279,1.11485 v 0 l -0.32789,1.18042 -0.39348,1.11485 -0.45906,1.11485 -0.45905,1.04927 -0.52464,1.11485 v 0 l -0.52463,1.04927 -0.59022,0.9837 -0.65579,1.04927 -0.6558,0.91811 -0.72137,0.98369 v 0 l -0.72137,0.91811 -0.72138,0.85253 -0.85253,0.85253 -0.78695,0.78696 -0.85253,0.78695 v 0 l -0.91811,0.78695 -0.91812,0.6558 -0.91811,0.72137 -0.98369,0.59021 -0.98369,0.59022 v 0 l -0.98369,0.52463 -1.04927,0.52464 -0.98369,0.45905 -1.11485,0.39348 -1.04927,0.39348 v 0 l -1.11485,0.32789 -1.04927,0.26232 -1.11485,0.26232 -1.11485,0.19674 -1.11485,0.13116 v 0 l -1.11485,0.0656 -1.11485,0.0656 h -1.18043 l -1.11485,-0.0656 -1.11485,-0.0656 v 0 l -1.11485,-0.13116 -1.11485,-0.19674 -1.11485,-0.26232 -1.11485,-0.26232 -1.04927,-0.32789 v 0 l -1.11485,-0.39348 -1.04927,-0.39348 -1.04927,-0.45905 -0.98369,-0.52464 -1.04927,-0.52463 v 0 l -0.98369,-0.59022 -0.91811,-0.59021 -0.91811,-0.72137 -0.91812,-0.6558 -0.91811,-0.78695 v 0 l -0.85253,-0.78695 -0.85253,-0.78696 -0.78695,-0.85253 -0.721377,-0.85253 -0.786953,-0.91811 v 0 l -0.655794,-0.98369 -0.655794,-0.91811 -0.655794,-1.04927 -0.590215,-0.9837 -0.524635,-1.04927 v 0 l -0.524635,-1.04927 -0.459056,-1.04927 -0.393476,-0.98369 -0.327897,-0.98369 -0.327897,-0.98369 v 0 l -0.655794,-2.36086"
       style="fill:none;stroke:#000000;stroke-width:0.786953;stroke-linecap:round;stroke-linejoin:round;stroke-miterlimit:10;stroke-dasharray:none;stroke-opacity:1"
       id="path252" /><path
       d="M 88.898712,603.14731 H 77.619056 v 22.49373 h 11.279656 m 0,0 H 77.619056"
       style="fill:none;stroke:#000000;stroke-width:0.918112;stroke-linecap:round;stroke-linejoin:round;stroke-miterlimit:10;stroke-dasharray:none;stroke-opacity:1"
       id="path254" /><path
       d="M 93.226952,607.54113 H 81.55382 v 13.90283 l 11.607553,-0.13116 m 0,0 -11.607553,0.13116"
       style="fill:none;stroke:#000000;stroke-width:0.918112;stroke-linecap:round;stroke-linejoin:round;stroke-miterlimit:10;stroke-dasharray:none;stroke-opacity:1"
       id="path256" /><path
       d="m 119.26197,626.16568 -0.45905,-0.0656 -0.45906,-0.0656 -0.45905,-0.0656 -0.45906,-0.13116 -0.45906,-0.13116 v 0 l -0.45905,-0.13116 -0.39348,-0.19674 -0.45905,-0.19673 -0.45906,-0.19674 -0.39348,-0.19674 v 0 l -0.39347,-0.26232 -0.39348,-0.26232 -0.39348,-0.26231 -0.39347,-0.26232 -0.39348,-0.3279 v 0 l -0.3279,-0.26231 -0.39347,-0.3279 -0.3279,-0.39348 -0.3279,-0.3279 -0.26231,-0.39347 v 0 l -0.3279,-0.39348 -0.26232,-0.39347 -0.26232,-0.39348 -0.26231,-0.39348 -0.19674,-0.39347 v 0 l -0.26232,-0.45906 -0.19674,-0.45906 -0.13116,-0.45905 -0.19673,-0.39348 -0.13116,-0.52463 v 0 l -0.13116,-0.45906 -0.13116,-0.45905 -0.0656,-0.45906 -0.0656,-0.45906 -0.0656,-0.52463 v 0 l -0.0656,-0.45906 v -1.44274 l 0.0656,-0.52464 v 0 l 0.0656,-0.45905 0.0656,-0.45906 0.0656,-0.45906 0.13116,-0.52463 0.13116,-0.45906 v 0 l 0.13116,-0.45905 0.19673,-0.45906 0.13116,-0.45905 0.19674,-0.39348 0.26232,-0.45906 v 0 l 0.19674,-0.39347 0.26231,-0.45906 0.26232,-0.39347 0.26232,-0.39348 0.3279,-0.39348 v 0 l 0.26231,-0.32789 0.3279,-0.39348 0.3279,-0.3279 0.39347,-0.32789 0.3279,-0.3279 v 0 l 0.39348,-0.26232 0.39347,-0.3279 0.39348,-0.26231 0.39348,-0.26232 0.39347,-0.19674 v 0 l 0.39348,-0.26232 0.45906,-0.19674 0.45905,-0.13115 0.39348,-0.19674 0.45905,-0.13116 v 0 l 0.45906,-0.13116 0.45906,-0.13116 0.45905,-0.0656 0.45906,-0.13116 h 0.45905 v 0 l 0.52464,-0.0656 h 1.37717 l 0.45905,0.0656 h 0.52464 l 0.45905,0.13116 0.45906,0.0656 0.45905,0.13116 0.45906,0.13116 v 0 l 0.45906,0.13116 0.39347,0.19674 0.45906,0.13115 0.39347,0.19674 0.45906,0.26232 v 0 l 0.39348,0.19674 0.39347,0.26232 0.39348,0.26231 0.39348,0.3279 0.39347,0.26232 v 0 l 0.3279,0.3279 0.39347,0.32789 0.3279,0.3279 0.3279,0.39348 0.26232,0.32789 v 0 l 0.32789,0.39348 0.26232,0.39348 0.26232,0.39347 0.26232,0.45906 0.19673,0.39347 v 0 l 0.19674,0.45906 0.19674,0.39348 0.19674,0.45905 0.19674,0.45906 0.13116,0.45905 v 0 l 0.13115,0.45906 0.13116,0.52463 0.0656,0.45906 0.0656,0.45906 0.0656,0.45905 v 0 l 0.0656,0.52464 v 1.44274 l -0.0656,0.45906 v 0 l -0.0656,0.52463 -0.0656,0.45906 -0.0656,0.45906 -0.13116,0.45905 -0.13115,0.45906 v 0 l -0.13116,0.52463 -0.19674,0.39348 -0.19674,0.45905 -0.19674,0.45906 -0.19674,0.45906 v 0 l -0.19673,0.39347 -0.26232,0.39348 -0.26232,0.39348 -0.26232,0.39347 -0.32789,0.39348 v 0 l -0.26232,0.39347 -0.3279,0.3279 -0.3279,0.39348 -0.39347,0.3279 -0.3279,0.26231 v 0 l -0.39347,0.3279 -0.39348,0.26232 -0.39348,0.26231 -0.39347,0.26232 -0.39348,0.26232 v 0 l -0.45906,0.19674 -0.39347,0.19674 -0.45906,0.19673 -0.39347,0.19674 -0.45906,0.13116 v 0 l -0.45906,0.13116 -0.45905,0.13116 -0.45906,0.0656 -0.45905,0.0656 -0.52464,0.0656 v 0 l -0.45905,0.0656 h -1.37717 z"
       style="fill:none;stroke:#000000;stroke-width:0.918112;stroke-linecap:round;stroke-linejoin:round;stroke-miterlimit:10;stroke-dasharray:none;stroke-opacity:1"
       id="path258" /><path
       d="m 79.717596,607.67229 h 1.573906 v 14.55862 h -1.573906 z"
       style="fill:#ffffff;fill-opacity:1;fill-rule:nonzero;stroke:none;stroke-width:0.0655794"
       id="path260" /><path
       d="m 81.881717,607.86903 h 4.065922 v 13.44377 h -4.065922 z"
       style="fill:none;stroke:#000000;stroke-width:0.590215;stroke-linecap:square;stroke-linejoin:miter;stroke-miterlimit:10;stroke-dasharray:none;stroke-opacity:1"
       id="path262" /><path
       d="m 81.881717,613.57443 h 4.065922 v 1.83623 h -4.065922 z"
       style="fill:none;stroke:#000000;stroke-width:0.590215;stroke-linecap:square;stroke-linejoin:miter;stroke-miterlimit:10;stroke-dasharray:none;stroke-opacity:1"
       id="path264" /><path
       d="m 86.734592,607.86903 h 0.327897 l 0.196738,0.0656 h 0.262318 l 0.262317,0.0656 h 0.196739 l 0.262317,0.0656 0.196738,0.0656 v 0 l 0.262318,0.0656 0.196738,0.13116 0.196738,0.0656 0.262318,0.13116 0.196738,0.13116 v 0 l 0.196738,0.13116 0.196738,0.13116 0.196739,0.13115 0.196738,0.13116 0.196738,0.13116 v 0 l 0.131159,0.19674 0.196738,0.19674 0.196738,0.13116 0.131159,0.19674 0.131159,0.19673 v 0 l 0.196738,0.19674 0.131159,0.19674 0.131159,0.26232 0.131158,0.19674 0.06558,0.19673 v 0 l 0.131159,0.26232 0.131158,0.19674 0.06558,0.26232 0.06558,0.19674 0.06558,0.26231 v 0 l 0.06558,0.26232 0.06558,0.26232 0.06558,0.19674 v 0.26231 l 0.06558,0.26232 v 1.24601 l -0.06558,0.26232 v 0.26232 l -0.06558,0.26231 -0.06558,0.26232 -0.06558,0.19674 v 0 l -0.06558,0.26232 -0.06558,0.26231 -0.06558,0.19674 -0.131158,0.26232 -0.131159,0.19674 v 0 l -0.06558,0.26232 -0.131158,0.19673 -0.131159,0.19674 -0.131159,0.19674 -0.196738,0.19674 v 0 l -0.131159,0.19674 -0.131159,0.19673 -0.196738,0.19674 -0.196738,0.19674 -0.131159,0.13116 v 0 l -0.196738,0.13116 -0.196738,0.19674 -0.196739,0.13116 -0.196738,0.13115 -0.196738,0.13116 v 0 l -0.196738,0.13116 -0.262318,0.0656 -0.196738,0.13116 -0.196738,0.0656 -0.262318,0.0656 v 0 l -0.196738,0.0656 -0.262317,0.0656 -0.196739,0.0656 -0.262317,0.0656 h -0.262318 -0.196738 l -0.131159,0.0656 h -0.196738 v 0"
       style="fill:none;stroke:#000000;stroke-width:0.786953;stroke-linecap:round;stroke-linejoin:round;stroke-miterlimit:10;stroke-dasharray:none;stroke-opacity:1"
       id="path266" /><path
       d="m 137.9521,602.88499 c -1.83622,0 -1.83622,1.83622 -1.83622,1.83622 v 18.95245 c 0,1.83622 1.83622,1.83622 1.83622,1.83622 h 0.52464 c 1.83622,0 1.83622,-1.83622 1.83622,-1.83622 v -18.95245 c 0,-1.83622 -1.83622,-1.83622 -1.83622,-1.83622 h -0.52464"
       style="fill:none;stroke:#000000;stroke-width:0.786953;stroke-linecap:round;stroke-linejoin:round;stroke-miterlimit:10;stroke-dasharray:none;stroke-opacity:1"
       id="path268" /><path
       d="m 136.11588,607.67229 h 4.06592 v 13.50935 h -4.06592 z"
       style="fill:none;stroke:#000000;stroke-width:0.590215;stroke-linecap:square;stroke-linejoin:miter;stroke-miterlimit:10;stroke-dasharray:none;stroke-opacity:1"
       id="path270" /><path
       d="m 136.11588,613.44327 h 4.06592 v 1.83623 h -4.06592 z"
       style="fill:none;stroke:#000000;stroke-width:0.590215;stroke-linecap:square;stroke-linejoin:miter;stroke-miterlimit:10;stroke-dasharray:none;stroke-opacity:1"
       id="path272" /><path
       d="m 108.70369,610.62336 h 23.543 v 6.6891 h -23.543 z"
       style="fill:none;stroke:#000000;stroke-width:0.786953;stroke-linecap:square;stroke-linejoin:miter;stroke-miterlimit:10;stroke-dasharray:none;stroke-opacity:1"
       id="path274" /><path
       d="m 105.8182,600.06508 h -0.26232 l -0.0656,-0.0656 h -0.0656 l -0.0656,-0.0656 h -0.0656 l -0.0656,-0.0656 h -0.0656 l -0.0656,-0.0656 h -0.0656 v -0.0656 h -0.0656 v 0 l -0.0656,-0.0656 -0.0656,-0.0656 v 0 l -0.0656,-0.0656 v -0.0656 h -0.0656 l -0.0656,-0.0656 v -0.0656 l -0.0656,-0.0656 v -0.0656 l -0.0656,-0.0656 v -0.0656 l -0.0656,-0.0656 v -0.13116 l -0.0656,-0.0656 v -0.72137 l 0.0656,-0.0656 v -0.0656 l 0.0656,-0.0656 v -0.13116 l 0.0656,-0.0656 v -0.0656 l 0.0656,-0.0656 v 0 l 0.0656,-0.0656 0.0656,-0.0656 v -0.0656 h 0.0656 v -0.0656 l 0.0656,-0.0656 h 0.0656 v 0 l 0.0656,-0.0656 v -0.0656 h 0.0656 l 0.0656,-0.0656 h 0.0656 v 0 l 0.0656,-0.0656 h 0.13116 l 0.0656,-0.0656 h 0.13116 l 0.0656,-0.0656 h 0.13116 0.32789 0.13116 l 0.0656,0.0656 h 0.13116 0.0656 l 0.0656,0.0656 h 0.0656 l 0.0656,0.0656 h 0.0656 l 0.0656,0.0656 h 0.0656 v 0.0656 l 0.0656,0.0656 h 0.0656 l 0.0656,0.0656 v 0.0656 h 0.0656 l 0.0656,0.0656 v 0.0656 l 0.0656,0.0656 v 0 l 0.0656,0.0656 v 0.0656 l 0.0656,0.0656 v 0.0656 l 0.0656,0.0656 v 0.13116 l 0.0656,0.0656 v 0.72137 l -0.0656,0.0656 v 0.19674 l -0.0656,0.0656 v 0 l -0.0656,0.0656 v 0.0656 l -0.0656,0.0656 v 0.0656 l -0.0656,0.0656 v 0 l -0.0656,0.0656 -0.0656,0.0656 v 0 l -0.0656,0.0656 -0.0656,0.0656 h -0.0656 v 0.0656 h -0.0656 l -0.0656,0.0656 h -0.0656 v 0 l -0.0656,0.0656 h -0.0656 v 0.0656 h -0.13116 v 0 l -0.0656,0.0656 h -0.26232 z"
       style="fill:none;stroke:#000000;stroke-width:0.786953;stroke-linecap:round;stroke-linejoin:round;stroke-miterlimit:10;stroke-dasharray:none;stroke-opacity:1"
       id="path276" /><path
       d="m 139.59159,600.39297 h -0.13116 l -0.0656,-0.0656 h -0.13116 -0.0656 v -0.0656 h -0.13116 l -0.0656,-0.0656 h -0.0656 l -0.0656,-0.0656 h -0.0656 v -0.0656 l -0.0656,-0.0656 h -0.0656 l -0.0656,-0.0656 v -0.0656 h -0.0656 l -0.0656,-0.0656 v -0.0656 l -0.0656,-0.0656 v 0 l -0.0656,-0.0656 v -0.0656 l -0.0656,-0.0656 v -0.13116 l -0.0656,-0.0656 v -0.0656 l -0.0656,-0.0656 v -0.72138 l 0.0656,-0.0656 v -0.13116 l 0.0656,-0.0656 v -0.0656 l 0.0656,-0.0656 v -0.0656 l 0.0656,-0.0656 v -0.0656 l 0.0656,-0.0656 v 0 l 0.0656,-0.0656 0.0656,-0.0656 v 0 l 0.0656,-0.0656 0.0656,-0.0656 h 0.0656 v -0.0656 h 0.0656 l 0.0656,-0.0656 h 0.0656 v 0 l 0.0656,-0.0656 h 0.0656 l 0.0656,-0.0656 h 0.0656 v 0 l 0.0656,-0.0656 h 0.26232 0.32789 0.26232 l 0.0656,0.0656 h 0.13116 v 0.0656 h 0.0656 l 0.0656,0.0656 h 0.0656 l 0.0656,0.0656 h 0.0656 v 0.0656 h 0.0656 v 0 l 0.0656,0.0656 0.0656,0.0656 v 0 l 0.0656,0.0656 0.0656,0.0656 v 0 l 0.0656,0.0656 v 0.0656 l 0.0656,0.0656 v 0.0656 l 0.0656,0.0656 v 0 l 0.0656,0.0656 v 0.19674 l 0.0656,0.0656 v 0.72138 l -0.0656,0.0656 v 0.13115 l -0.0656,0.0656 v 0.0656 l -0.0656,0.0656 v 0.0656 l -0.0656,0.0656 v 0 l -0.0656,0.0656 v 0.0656 l -0.0656,0.0656 h -0.0656 v 0.0656 l -0.0656,0.0656 h -0.0656 v 0 l -0.0656,0.0656 v 0.0656 h -0.0656 l -0.0656,0.0656 h -0.0656 v 0 l -0.0656,0.0656 h -0.0656 v 0 l -0.0656,0.0656 h -0.0656 -0.13116 l -0.0656,0.0656 h -0.13116 z"
       style="fill:none;stroke:#000000;stroke-width:0.786953;stroke-linecap:round;stroke-linejoin:round;stroke-miterlimit:10;stroke-dasharray:none;stroke-opacity:1"
       id="path278" /><path
       d="m 120.37682,638.36345 h -0.0656 l -0.0656,-0.0656 h -0.19673 v -0.0656 h -0.13116 l -0.0656,-0.0656 h -0.0656 v 0 l -0.0656,-0.0656 h -0.0656 v -0.0656 h -0.0656 l -0.0656,-0.0656 h -0.0656 v -0.0656 l -0.0656,-0.0656 h -0.0656 v -0.0656 l -0.0656,-0.0656 -0.0656,-0.0656 v -0.0656 h -0.0656 v -0.0656 l -0.0656,-0.0656 v -0.13116 l -0.0656,-0.0656 v -0.19674 l -0.0656,-0.0656 v -0.52464 l 0.0656,-0.0656 v -0.19673 l 0.0656,-0.0656 v -0.13116 l 0.0656,-0.0656 v 0 l 0.0656,-0.0656 v -0.0656 l 0.0656,-0.0656 0.0656,-0.0656 v 0 l 0.0656,-0.0656 0.0656,-0.0656 v 0 l 0.0656,-0.0656 v 0 l 0.0656,-0.0656 h 0.0656 v -0.0656 h 0.0656 l 0.0656,-0.0656 h 0.0656 l 0.0656,-0.0656 h 0.13116 v -0.0656 h 0.32789 v 0 l 0.0656,-0.0656 h 0.19674 l 0.0656,0.0656 h 0.3279 v 0 l 0.0656,0.0656 h 0.13115 v 0.0656 h 0.0656 v 0 l 0.0656,0.0656 h 0.0656 l 0.0656,0.0656 h 0.0656 v 0.0656 l 0.0656,0.0656 h 0.0656 v 0.0656 l 0.0656,0.0656 h 0.0656 v 0.0656 l 0.0656,0.0656 v 0.0656 l 0.0656,0.0656 v 0 l 0.0656,0.0656 v 0.0656 l 0.0656,0.0656 v 0.13115 l 0.0656,0.0656 v 0.78696 l -0.0656,0.0656 v 0.13115 l -0.0656,0.0656 v 0.0656 l -0.0656,0.0656 v 0.0656 h -0.0656 v 0.0656 l -0.0656,0.0656 v 0.0656 l -0.0656,0.0656 h -0.0656 v 0.0656 l -0.0656,0.0656 h -0.0656 v 0.0656 h -0.0656 l -0.0656,0.0656 h -0.0656 l -0.0656,0.0656 h -0.0656 v 0.0656 h -0.13115 l -0.0656,0.0656 h -0.19674 l -0.0656,0.0656 h -0.0656 z"
       style="fill:none;stroke:#000000;stroke-width:0.786953;stroke-linecap:round;stroke-linejoin:round;stroke-miterlimit:10;stroke-dasharray:none;stroke-opacity:1"
       id="path280" /></g></svg>
