<?xml version="1.0" encoding="UTF-8" standalone="no"?>
<!-- Created with Inkscape (http://www.inkscape.org/) -->

<svg
   xmlns:dc="http://purl.org/dc/elements/1.1/"
   xmlns:cc="http://creativecommons.org/ns#"
   xmlns:rdf="http://www.w3.org/1999/02/22-rdf-syntax-ns#"
   xmlns:svg="http://www.w3.org/2000/svg"
   xmlns="http://www.w3.org/2000/svg"
   xmlns:sodipodi="http://sodipodi.sourceforge.net/DTD/sodipodi-0.dtd"
   xmlns:inkscape="http://www.inkscape.org/namespaces/inkscape"
   width="13.955301mm"
   height="12.678288mm"
   viewBox="0 0 13.955301 12.678288"
   version="1.1"
   id="svg8"
   inkscape:version="0.92.4 (5da689c313, 2019-01-14)"
   sodipodi:docname="poti.svg">
  <defs
     id="defs2" />
  <sodipodi:namedview
     id="base"
     pagecolor="#ffffff"
     bordercolor="#666666"
     borderopacity="1.0"
     inkscape:pageopacity="0.0"
     inkscape:pageshadow="2"
     inkscape:zoom="5.7464638"
     inkscape:cx="26.858758"
     inkscape:cy="-1.2301189"
     inkscape:document-units="mm"
     inkscape:current-layer="layer1"
     showgrid="true"
     inkscape:snap-object-midpoints="true"
     inkscape:window-width="1530"
     inkscape:window-height="836"
     inkscape:window-x="70"
     inkscape:window-y="27"
     inkscape:window-maximized="1"
     inkscape:snap-grids="false"
     fit-margin-top="0"
     fit-margin-left="0"
     fit-margin-right="0"
     fit-margin-bottom="0">
    <inkscape:grid
       type="xygrid"
       id="grid815"
       units="mm"
       spacingx="2.54"
       spacingy="2.54"
       empspacing="2"
       originx="-5.778366"
       originy="-31.719997" />
  </sodipodi:namedview>
  <metadata
     id="metadata5">
    <rdf:RDF>
      <cc:Work
         rdf:about="">
        <dc:format>image/svg+xml</dc:format>
        <dc:type
           rdf:resource="http://purl.org/dc/dcmitype/StillImage" />
        <dc:title></dc:title>
      </cc:Work>
    </rdf:RDF>
  </metadata>
  <g
     inkscape:label="F.Cu"
     inkscape:groupmode="layer"
     id="layer1"
     transform="translate(-5.7783666,-252.60171)">
    <rect
       rx="0.5"
       ry="0.5"
       y="260.28"
       x="11.8"
       height="5"
       width="1.8"
       id="rect6251"
       style="fill:#00000e;fill-opacity:1;stroke-width:0.35299999;stroke-linecap:butt;stroke-miterlimit:10;stroke-dasharray:none" />
    <rect
       style="fill:#00000e;fill-opacity:1;stroke-width:0.35299999;stroke-linecap:butt;stroke-miterlimit:10;stroke-dasharray:none"
       id="rect6253"
       width="1.8"
       height="5"
       x="14.34"
       y="260.28"
       ry="0.5"
       rx="0.5" />
    <rect
       style="fill:#00000e;fill-opacity:1;stroke-width:0.35299999;stroke-linecap:butt;stroke-miterlimit:10;stroke-dasharray:none"
       id="rect4520"
       width="1.8"
       height="5"
       x="9.2600002"
       y="260.28"
       ry="0.5"
       rx="0.5" />
    <rect
       style="fill:#00000e;fill-opacity:1;stroke-width:0.35299999;stroke-linecap:butt;stroke-miterlimit:10;stroke-dasharray:none"
       id="rect6253-5"
       width="1.8000001"
       height="5"
       x="17.933668"
       y="255.14001"
       ry="0.5"
       rx="0.5" />
    <rect
       rx="0.5"
       ry="0.5"
       y="255.13998"
       x="5.7783666"
       height="5"
       width="1.8000001"
       id="rect1150"
       style="fill:#00000e;fill-opacity:1;stroke-width:0.35299999;stroke-linecap:butt;stroke-miterlimit:10;stroke-dasharray:none" />
  </g>
  <g
     inkscape:groupmode="layer"
     id="layer2"
     inkscape:label="F.Silk"
     transform="translate(-5.7783666,-5.6017129)">
    <text
       xml:space="preserve"
       style="font-style:normal;font-weight:normal;font-size:1.05833328px;line-height:1.25;font-family:sans-serif;letter-spacing:0px;word-spacing:0px;fill:#000000;fill-opacity:1;stroke:none;stroke-width:0.26458332"
       x="-0.089926094"
       y="25.588249"
       id="text1106"><tspan
         sodipodi:role="line"
         id="tspan1104"
         x="-0.089926094"
         y="26.524626"
         style="stroke-width:0.26458332" /></text>
  </g>
  <g
     inkscape:groupmode="layer"
     id="layer3"
     inkscape:label="Drill"
     transform="translate(2.6035839,8.8782991)">
    <ellipse
       cy="2.500001"
       cx="1.7780498"
       id="circle9850"
       style="display:inline;opacity:1;fill:#ffffff;fill-opacity:1;stroke:#000000;stroke-width:0.03378583;stroke-linecap:butt;stroke-linejoin:round;stroke-miterlimit:4;stroke-dasharray:none;stroke-dashoffset:0;stroke-opacity:1"
       rx="0.38310707"
       ry="0.3831071" />
    <ellipse
       ry="0.3831071"
       rx="0.38310707"
       style="display:inline;opacity:1;fill:#ffffff;fill-opacity:1;stroke:#000000;stroke-width:0.03378583;stroke-linecap:butt;stroke-linejoin:round;stroke-miterlimit:4;stroke-dasharray:none;stroke-dashoffset:0;stroke-opacity:1"
       id="ellipse5667"
       cx="4.3180499"
       cy="2.500001" />
    <ellipse
       cy="2.500001"
       cx="6.8580494"
       id="ellipse5669"
       style="display:inline;opacity:1;fill:#ffffff;fill-opacity:1;stroke:#000000;stroke-width:0.03378583;stroke-linecap:butt;stroke-linejoin:round;stroke-miterlimit:4;stroke-dasharray:none;stroke-dashoffset:0;stroke-opacity:1"
       rx="0.38310707"
       ry="0.3831071" />
    <rect
       transform="translate(-8.3819505,-14.480012)"
       style="opacity:1;vector-effect:none;fill:none;fill-opacity:1;stroke:#000000;stroke-width:0.1;stroke-linecap:butt;stroke-linejoin:miter;stroke-miterlimit:4;stroke-dasharray:none;stroke-dashoffset:0;stroke-opacity:1"
       id="rect1131"
       width="10"
       height="10"
       x="7.7373514"
       y="5.6517129"
       rx="0.73931992"
       ry="0.65271115" />
    <circle
       transform="translate(-8.3819505,-14.480012)"
       style="opacity:1;vector-effect:none;fill:#000000;fill-opacity:1;stroke:#000000;stroke-width:0.1;stroke-linecap:butt;stroke-linejoin:miter;stroke-miterlimit:4;stroke-dasharray:none;stroke-dashoffset:0;stroke-opacity:1"
       id="path1133"
       cx="12.756017"
       cy="9.4962873"
       r="2.5" />
  </g>
</svg>
